Tidybiology
…
.panelset[
.panel[.panel-name[Code]

```r
happy_full %>% 
  select(starts_with("explained"))
```

]

.panel[.panel-name[Output]

```
## # A tibble: 149 x 6
##    explained_by_log_g… explained_by_soci… explained_by_heal… explained_by_freed…
##                  <dbl>              <dbl>              <dbl>               <dbl>
##  1                1.45               1.11              0.741               0.691
##  2                1.50               1.11              0.763               0.686
##  3                1.57               1.08              0.816               0.653
##  4                1.48               1.17              0.772               0.698
##  5                1.50               1.08              0.753               0.647
##  6                1.54               1.11              0.782               0.703
##  7                1.48               1.06              0.763               0.685
##  8                1.75               1.00              0.76                0.639
##  9                1.4                1.09              0.785               0.665
## 10                1.49               1.06              0.782               0.64 
## # … with 139 more rows, and 2 more variables: explained_by_generosity <dbl>,
## #   explained_by_perceptions_of_corruption <dbl>
```
…
```r
happy_full %>% 
  select(contains("ladder"))
```

]

.panel[.panel-name[Output]

```
## # A tibble: 149 x 3
##    ladder_score standard_error_of_ladder_score ladder_score_in_dystopia
##           <dbl>                          <dbl>                    <dbl>
##  1         7.84                          0.032                     2.43
##  2         7.62                          0.035                     2.43
##  3         7.57                          0.036                     2.43
##  4         7.55                          0.059                     2.43
##  5         7.46                          0.027                     2.43
##  6         7.39                          0.035                     2.43
##  7         7.36                          0.036                     2.43
##  8         7.32                          0.037                     2.43
##  9         7.28                          0.04                      2.43
## 10         7.27                          0.036                     2.43
## # … with 139 more rows
```
…
```r
happy_full %>% 
  select(country_name, where(is.numeric))
```

]

.panel[.panel-name[Output]

```
## # A tibble: 149 x 19
##    country_name ladder_score standard_error_of_ladder… upperwhisker lowerwhisker
##    <chr>               <dbl>                     <dbl>        <dbl>        <dbl>
##  1 Finland              7.84                     0.032         7.90         7.78
##  2 Denmark              7.62                     0.035         7.69         7.55
##  3 Switzerland          7.57                     0.036         7.64         7.5 
##  4 Iceland              7.55                     0.059         7.67         7.44
##  5 Netherlands          7.46                     0.027         7.52         7.41
##  6 Norway               7.39                     0.035         7.46         7.32
##  7 Sweden               7.36                     0.036         7.43         7.29
##  8 Luxembourg           7.32                     0.037         7.40         7.25
##  9 New Zealand          7.28                     0.04          7.36         7.20
## 10 Austria              7.27                     0.036         7.34         7.20
## # … with 139 more rows, and 14 more variables: logged_gdp_per_capita <dbl>,
## #   social_support <dbl>, healthy_life_expectancy <dbl>,
## #   freedom_to_make_life_choices <dbl>, generosity <dbl>,
## #   perceptions_of_corruption <dbl>, ladder_score_in_dystopia <dbl>,
## #   explained_by_log_gdp_per_capita <dbl>, explained_by_social_support <dbl>,
## #   explained_by_healthy_life_expectancy <dbl>,
## #   explained_by_freedom_to_make_life_choices <dbl>,
## #   explained_by_generosity <dbl>,
## #   explained_by_perceptions_of_corruption <dbl>, dystopia_residual <dbl>
```
…
