Tidybiology
…
```r
happy_full %>% 
  unite("country_region", c(country_name, region))
```

]

.panel[.panel-name[Output]

```
## # A tibble: 149 × 19
##    country_region        ladder_score standard_error_… upperwhisker lowerwhisker
##    <chr>                        <dbl>            <dbl>        <dbl>        <dbl>
##  1 Finland_Western Euro…         7.84            0.032         7.90         7.78
##  2 Denmark_Western Euro…         7.62            0.035         7.69         7.55
##  3 Switzerland_Western …         7.57            0.036         7.64         7.5 
##  4 Iceland_Western Euro…         7.55            0.059         7.67         7.44
##  5 Netherlands_Western …         7.46            0.027         7.52         7.41
##  6 Norway_Western Europe         7.39            0.035         7.46         7.32
##  7 Sweden_Western Europe         7.36            0.036         7.43         7.29
##  8 Luxembourg_Western E…         7.32            0.037         7.40         7.25
##  9 New Zealand_North Am…         7.28            0.04          7.36         7.20
## 10 Austria_Western Euro…         7.27            0.036         7.34         7.20
## # … with 139 more rows, and 14 more variables: logged_gdp_per_capita <dbl>,
## #   social_support <dbl>, healthy_life_expectancy <dbl>,
## #   freedom_to_make_life_choices <dbl>, generosity <dbl>,
## #   perceptions_of_corruption <dbl>, ladder_score_in_dystopia <dbl>,
## #   explained_by_log_gdp_per_capita <dbl>, explained_by_social_support <dbl>,
## #   explained_by_healthy_life_expectancy <dbl>,
## #   explained_by_freedom_to_make_life_choices <dbl>, …
```
…
.panelset[
.panel[.panel-name[Code]

```r
happy_full %>% 
  unite("country_region", c(country_name, region), remove = FALSE)
```

]

.panel[.panel-name[Output]

```
## # A tibble: 149 × 21
##    country_region country_name region ladder_score standard_error_… upperwhisker
##    <chr>          <chr>        <chr>         <dbl>            <dbl>        <dbl>
##  1 Finland_Weste… Finland      Weste…         7.84            0.032         7.90
##  2 Denmark_Weste… Denmark      Weste…         7.62            0.035         7.69
##  3 Switzerland_W… Switzerland  Weste…         7.57            0.036         7.64
##  4 Iceland_Weste… Iceland      Weste…         7.55            0.059         7.67
##  5 Netherlands_W… Netherlands  Weste…         7.46            0.027         7.52
##  6 Norway_Wester… Norway       Weste…         7.39            0.035         7.46
##  7 Sweden_Wester… Sweden       Weste…         7.36            0.036         7.43
##  8 Luxembourg_We… Luxembourg   Weste…         7.32            0.037         7.40
##  9 New Zealand_N… New Zealand  North…         7.28            0.04          7.36
## 10 Austria_Weste… Austria      Weste…         7.27            0.036         7.34
## # … with 139 more rows, and 15 more variables: lowerwhisker <dbl>,
## #   logged_gdp_per_capita <dbl>, social_support <dbl>,
## #   healthy_life_expectancy <dbl>, freedom_to_make_life_choices <dbl>,
## #   generosity <dbl>, perceptions_of_corruption <dbl>,
## #   ladder_score_in_dystopia <dbl>, explained_by_log_gdp_per_capita <dbl>,
## #   explained_by_social_support <dbl>,
## #   explained_by_healthy_life_expectancy <dbl>, …
```
…
.panelset[
.panel[.panel-name[Code]

```r
happy_full %>% 
  unite("country_region", c(country_name, region), sep = ".")
```

]

.panel[.panel-name[Output]

```
## # A tibble: 149 × 19
##    country_region        ladder_score standard_error_… upperwhisker lowerwhisker
##    <chr>                        <dbl>            <dbl>        <dbl>        <dbl>
##  1 Finland.Western Euro…         7.84            0.032         7.90         7.78
##  2 Denmark.Western Euro…         7.62            0.035         7.69         7.55
##  3 Switzerland.Western …         7.57            0.036         7.64         7.5 
##  4 Iceland.Western Euro…         7.55            0.059         7.67         7.44
##  5 Netherlands.Western …         7.46            0.027         7.52         7.41
##  6 Norway.Western Europe         7.39            0.035         7.46         7.32
##  7 Sweden.Western Europe         7.36            0.036         7.43         7.29
##  8 Luxembourg.Western E…         7.32            0.037         7.40         7.25
##  9 New Zealand.North Am…         7.28            0.04          7.36         7.20
## 10 Austria.Western Euro…         7.27            0.036         7.34         7.20
## # … with 139 more rows, and 14 more variables: logged_gdp_per_capita <dbl>,
## #   social_support <dbl>, healthy_life_expectancy <dbl>,
## #   freedom_to_make_life_choices <dbl>, generosity <dbl>,
## #   perceptions_of_corruption <dbl>, ladder_score_in_dystopia <dbl>,
## #   explained_by_log_gdp_per_capita <dbl>, explained_by_social_support <dbl>,
## #   explained_by_healthy_life_expectancy <dbl>,
## #   explained_by_freedom_to_make_life_choices <dbl>, …
```
…
.panelset[
.panel[.panel-name[Code]

```r
happy_full %>% 
  unite("country_region", c(country_name, region)) %>% 
  separate(country_region, c("country_name", "region"), sep = "_")
```

]

.panel[.panel-name[Output]

```
## # A tibble: 149 × 20
##    country_name region   ladder_score standard_error_… upperwhisker lowerwhisker
##    <chr>        <chr>           <dbl>            <dbl>        <dbl>        <dbl>
##  1 Finland      Western…         7.84            0.032         7.90         7.78
##  2 Denmark      Western…         7.62            0.035         7.69         7.55
##  3 Switzerland  Western…         7.57            0.036         7.64         7.5 
##  4 Iceland      Western…         7.55            0.059         7.67         7.44
##  5 Netherlands  Western…         7.46            0.027         7.52         7.41
##  6 Norway       Western…         7.39            0.035         7.46         7.32
##  7 Sweden       Western…         7.36            0.036         7.43         7.29
##  8 Luxembourg   Western…         7.32            0.037         7.40         7.25
##  9 New Zealand  North A…         7.28            0.04          7.36         7.20
## 10 Austria      Western…         7.27            0.036         7.34         7.20
## # … with 139 more rows, and 14 more variables: logged_gdp_per_capita <dbl>,
## #   social_support <dbl>, healthy_life_expectancy <dbl>,
## #   freedom_to_make_life_choices <dbl>, generosity <dbl>,
## #   perceptions_of_corruption <dbl>, ladder_score_in_dystopia <dbl>,
## #   explained_by_log_gdp_per_capita <dbl>, explained_by_social_support <dbl>,
## #   explained_by_healthy_life_expectancy <dbl>,
## #   explained_by_freedom_to_make_life_choices <dbl>, …
```
…
