Tidybiology
…
.panel[.panel-name[R Code]

```r
happy_long %>% 
  filter(str_detect(region, "Africa"))
```

]

.panel[.panel-name[Output]

```
## # A tibble: 424 × 4
##    country_name region                       measurements                 values
##    <chr>        <chr>                        <chr>                         <dbl>
##  1 Israel       Middle East and North Africa ladder_score_in_dystopia      2.43 
##  2 Israel       Middle East and North Africa ladder_score                  7.16 
##  3 Israel       Middle East and North Africa logged_gdp_per_capita        10.6  
##  4 Israel       Middle East and North Africa social_support                0.939
##  5 Israel       Middle East and North Africa healthy_life_expectancy      73.5  
##  6 Israel       Middle East and North Africa freedom_to_make_life_choices  0.8  
##  7 Israel       Middle East and North Africa generosity                    0.031
##  8 Israel       Middle East and North Africa perceptions_of_corruption     0.753
##  9 Bahrain      Middle East and North Africa ladder_score_in_dystopia      2.43 
## 10 Bahrain      Middle East and North Africa ladder_score                  6.65 
## # … with 414 more rows
```
…
.panel[.panel-name[R Code]

```r
happy_long %>% 
  filter(str_detect(measurements, "ladder|life"))
```

]

.panel[.panel-name[Output]

```
## # A tibble: 596 × 4
##    country_name region         measurements                 values
##    <chr>        <chr>          <chr>                         <dbl>
##  1 Finland      Western Europe ladder_score_in_dystopia      2.43 
##  2 Finland      Western Europe ladder_score                  7.84 
##  3 Finland      Western Europe healthy_life_expectancy      72    
##  4 Finland      Western Europe freedom_to_make_life_choices  0.949
##  5 Denmark      Western Europe ladder_score_in_dystopia      2.43 
##  6 Denmark      Western Europe ladder_score                  7.62 
##  7 Denmark      Western Europe healthy_life_expectancy      72.7  
##  8 Denmark      Western Europe freedom_to_make_life_choices  0.946
##  9 Switzerland  Western Europe ladder_score_in_dystopia      2.43 
## 10 Switzerland  Western Europe ladder_score                  7.57 
## # … with 586 more rows
```
…
.panel[.panel-name[R Code]

```r
happy_long %>% 
  mutate(region = str_to_lower(region))
```

]

.panel[.panel-name[Output]

```
## # A tibble: 1,192 × 4
##    country_name region         measurements                 values
##    <chr>        <chr>          <chr>                         <dbl>
##  1 Finland      western europe ladder_score_in_dystopia      2.43 
##  2 Finland      western europe ladder_score                  7.84 
##  3 Finland      western europe logged_gdp_per_capita        10.8  
##  4 Finland      western europe social_support                0.954
##  5 Finland      western europe healthy_life_expectancy      72    
##  6 Finland      western europe freedom_to_make_life_choices  0.949
##  7 Finland      western europe generosity                   -0.098
##  8 Finland      western europe perceptions_of_corruption     0.186
##  9 Denmark      western europe ladder_score_in_dystopia      2.43 
## 10 Denmark      western europe ladder_score                  7.62 
## # … with 1,182 more rows
```
…
.panel[.panel-name[R Code]

```r
happy_long %>% 
  mutate(sentence_length = str_count(measurements, "_")) %>% 
  arrange(desc(sentence_length)) %>% 
  select(sentence_length)
```

]

.panel[.panel-name[Output]

```
## # A tibble: 1,192 × 1
##    sentence_length
##              <int>
##  1               4
##  2               4
##  3               4
##  4               4
##  5               4
##  6               4
##  7               4
##  8               4
##  9               4
## 10               4
## # … with 1,182 more rows
```
…
