Tidybiology
…
```r
happy_full %>% 
  select(starts_with("explained_by"))
```

]

.panel[.panel-name[Output]

```
## # A tibble: 149 × 6
##    explained_by_log_gdp_per_… explained_by_so… explained_by_he… explained_by_fr…
##                         <dbl>            <dbl>            <dbl>            <dbl>
##  1                       1.45             1.11            0.741            0.691
##  2                       1.50             1.11            0.763            0.686
##  3                       1.57             1.08            0.816            0.653
##  4                       1.48             1.17            0.772            0.698
##  5                       1.50             1.08            0.753            0.647
##  6                       1.54             1.11            0.782            0.703
##  7                       1.48             1.06            0.763            0.685
##  8                       1.75             1.00            0.76             0.639
##  9                       1.4              1.09            0.785            0.665
## 10                       1.49             1.06            0.782            0.64 
## # … with 139 more rows, and 2 more variables: explained_by_generosity <dbl>,
## #   explained_by_perceptions_of_corruption <dbl>
```
…
```r
happy_full %>% 
  select(ends_with("choices"))
```

]

.panel[.panel-name[Output]

```
## # A tibble: 149 × 2
##    freedom_to_make_life_choices explained_by_freedom_to_make_life_choices
##                           <dbl>                                     <dbl>
##  1                        0.949                                     0.691
##  2                        0.946                                     0.686
##  3                        0.919                                     0.653
##  4                        0.955                                     0.698
##  5                        0.913                                     0.647
##  6                        0.96                                      0.703
##  7                        0.945                                     0.685
##  8                        0.907                                     0.639
##  9                        0.929                                     0.665
## 10                        0.908                                     0.64 
## # … with 139 more rows
```
…
```r
happy_full %>% 
  select(contains("log"))
```

]

.panel[.panel-name[Output]

```
## # A tibble: 149 × 2
##    logged_gdp_per_capita explained_by_log_gdp_per_capita
##                    <dbl>                           <dbl>
##  1                  10.8                            1.45
##  2                  10.9                            1.50
##  3                  11.1                            1.57
##  4                  10.9                            1.48
##  5                  10.9                            1.50
##  6                  11.1                            1.54
##  7                  10.9                            1.48
##  8                  11.6                            1.75
##  9                  10.6                            1.4 
## 10                  10.9                            1.49
## # … with 139 more rows
```
…
```r
happy_full %>% 
  select(matches("^explained|score$"))
```

]

.panel[.panel-name[Output]

```
## # A tibble: 149 × 8
##    ladder_score standard_error_of_ladder_score explained_by_lo… explained_by_so…
##           <dbl>                          <dbl>            <dbl>            <dbl>
##  1         7.84                          0.032             1.45             1.11
##  2         7.62                          0.035             1.50             1.11
##  3         7.57                          0.036             1.57             1.08
##  4         7.55                          0.059             1.48             1.17
##  5         7.46                          0.027             1.50             1.08
##  6         7.39                          0.035             1.54             1.11
##  7         7.36                          0.036             1.48             1.06
##  8         7.32                          0.037             1.75             1.00
##  9         7.28                          0.04              1.4              1.09
## 10         7.27                          0.036             1.49             1.06
## # … with 139 more rows, and 4 more variables:
## #   explained_by_healthy_life_expectancy <dbl>,
## #   explained_by_freedom_to_make_life_choices <dbl>,
## #   explained_by_generosity <dbl>, explained_by_perceptions_of_corruption <dbl>
```
…
```r
happy_full %>% 
  select(ladder_score, everything())
```

]

.panel[.panel-name[Output]

```
## # A tibble: 149 × 20
##    ladder_score country_name region   standard_error_… upperwhisker lowerwhisker
##           <dbl> <chr>        <chr>               <dbl>        <dbl>        <dbl>
##  1         7.84 Finland      Western…            0.032         7.90         7.78
##  2         7.62 Denmark      Western…            0.035         7.69         7.55
##  3         7.57 Switzerland  Western…            0.036         7.64         7.5 
##  4         7.55 Iceland      Western…            0.059         7.67         7.44
##  5         7.46 Netherlands  Western…            0.027         7.52         7.41
##  6         7.39 Norway       Western…            0.035         7.46         7.32
##  7         7.36 Sweden       Western…            0.036         7.43         7.29
##  8         7.32 Luxembourg   Western…            0.037         7.40         7.25
##  9         7.28 New Zealand  North A…            0.04          7.36         7.20
## 10         7.27 Austria      Western…            0.036         7.34         7.20
## # … with 139 more rows, and 14 more variables: logged_gdp_per_capita <dbl>,
## #   social_support <dbl>, healthy_life_expectancy <dbl>,
## #   freedom_to_make_life_choices <dbl>, generosity <dbl>,
## #   perceptions_of_corruption <dbl>, ladder_score_in_dystopia <dbl>,
## #   explained_by_log_gdp_per_capita <dbl>, explained_by_social_support <dbl>,
## #   explained_by_healthy_life_expectancy <dbl>,
## #   explained_by_freedom_to_make_life_choices <dbl>, …
```
…
