Tidybiology
…
--
.panelset[
.panel[.panel-name[Code]

```r
happy_full %>% 
  arrange(region)
```

]

.panel[.panel-name[Output]

```
## # A tibble: 149 × 20
##    country_name   region ladder_score standard_error_… upperwhisker lowerwhisker
##    <chr>          <chr>         <dbl>            <dbl>        <dbl>        <dbl>
##  1 Czech Republic Centr…         6.96            0.049         7.06         6.87
##  2 Slovenia       Centr…         6.46            0.043         6.55         6.38
##  3 Kosovo         Centr…         6.37            0.059         6.49         6.26
##  4 Slovakia       Centr…         6.33            0.041         6.41         6.25
##  5 Lithuania      Centr…         6.26            0.045         6.34         6.17
##  6 Estonia        Centr…         6.19            0.038         6.26         6.12
##  7 Poland         Centr…         6.17            0.04          6.24         6.09
##  8 Romania        Centr…         6.14            0.057         6.25         6.03
##  9 Serbia         Centr…         6.08            0.053         6.18         5.97
## 10 Latvia         Centr…         6.03            0.036         6.10         5.96
## # … with 139 more rows, and 14 more variables: logged_gdp_per_capita <dbl>,
## #   social_support <dbl>, healthy_life_expectancy <dbl>,
## #   freedom_to_make_life_choices <dbl>, generosity <dbl>,
## #   perceptions_of_corruption <dbl>, ladder_score_in_dystopia <dbl>,
## #   explained_by_log_gdp_per_capita <dbl>, explained_by_social_support <dbl>,
## #   explained_by_healthy_life_expectancy <dbl>,
## #   explained_by_freedom_to_make_life_choices <dbl>, …
```
…
.panelset[
.panel[.panel-name[Code]

```r
happy_fact %>% 
  arrange(region)
```

]

.panel[.panel-name[Output]

```
## # A tibble: 149 × 20
##    country_name   region ladder_score standard_error_… upperwhisker lowerwhisker
##    <chr>          <fct>         <dbl>            <dbl>        <dbl>        <dbl>
##  1 Taiwan Provin… East …         6.58            0.038         6.66         6.51
##  2 Japan          East …         5.94            0.04          6.02         5.86
##  3 South Korea    East …         5.84            0.042         5.93         5.76
##  4 Mongolia       East …         5.68            0.042         5.76         5.60
##  5 Hong Kong S.A… East …         5.48            0.049         5.57         5.38
##  6 China          East …         5.34            0.029         5.40         5.28
##  7 Czech Republic Centr…         6.96            0.049         7.06         6.87
##  8 Slovenia       Centr…         6.46            0.043         6.55         6.38
##  9 Kosovo         Centr…         6.37            0.059         6.49         6.26
## 10 Slovakia       Centr…         6.33            0.041         6.41         6.25
## # … with 139 more rows, and 14 more variables: logged_gdp_per_capita <dbl>,
## #   social_support <dbl>, healthy_life_expectancy <dbl>,
## #   freedom_to_make_life_choices <dbl>, generosity <dbl>,
## #   perceptions_of_corruption <dbl>, ladder_score_in_dystopia <dbl>,
## #   explained_by_log_gdp_per_capita <dbl>, explained_by_social_support <dbl>,
## #   explained_by_healthy_life_expectancy <dbl>,
## #   explained_by_freedom_to_make_life_choices <dbl>, …
```
…
