Tidybiology
…
This is a sample from the proteins dataset

Data are stored in tables and dataframes

Data stored in a dataframe are conceptually equivalent to a spreadsheet with rows and columns

This is a sample from the proteins dataset

Extract or create new objects

You can call a single part of the data frame

proteins$gene_name_alt

## # A tibble: 12,105 x 1
##    gene_name_alt  
##    <chr>          
##  1 ACF ASP        
##  2 CPAMD5 FWP007  
##  3 CPAMD9         
##  4 A3GALT2P IGBS3S
##  5 A14GALT A4GALT1
##  6 ADRACALA GL003 
##  7 ACSF1          
##  8 DAC            
##  9 KAT2           
## 10 KIAA1048       
## # … with 12,095 more rows
…
