Tidybiology
…
Extract or create new objects

You can call a single part of the data frame

proteins$gene_name

## # A tibble: 12,105 x 1
##    gene_name
##    <chr>    
##  1 A1CF     
##  2 A2M      
##  3 A2ML1    
##  4 A3GALT2  
##  5 A4GALT   
##  6 AAAS     
##  7 AACS     
##  8 AADAC    
##  9 AADAT    
## 10 AAK1     
## # … with 12,095 more rows
…
